{
	"Version": 3,
	"Meta": {
		"Duration": 3.2,
		"Fps": 30.0,
		"Loop": true,
		"AreBeziersRestricted": true,
		"CurveCount": 11,
		"TotalSegmentCount": 80,
		"TotalPointCount": 235,
		"UserDataCount": 0,
		"TotalUserDataSize": 0
	},
	"Curves": [
		{
			"Target": "Parameter",
			"Id": "ParamEyeLOpen",
			"Segments": [
				0,
				1,
				0,
				0.167,
				1,
				1,
				0.189,
				1,
				0.211,
				0,
				0.233,
				0,
				1,
				0.289,
				0,
				0.344,
				1,
				0.4,
				1,
				1,
				0.744,
				1,
				1.089,
				1,
				1.433,
				1,
				1,
				1.467,
				1,
				1.5,
				0,
				1.533,
				0,
				1,
				1.567,
				0,
				1.6,
				1,
				1.633,
				1,
				0,
				3.2,
				1
			]
		},
		{
			"Target": "Parameter",
			"Id": "ParamEyeROpen",
			"Segments": [
				0,
				1,
				0,
				0.167,
				1,
				1,
				0.189,
				1,
				0.211,
				0,
				0.233,
				0,
				1,
				0.289,
				0,
				0.344,
				1,
				0.4,
				1,
				1,
				0.744,
				1,
				1.089,
				1,
				1.433,
				1,
				1,
				1.467,
				1,
				1.5,
				0,
				1.533,
				0,
				1,
				1.567,
				0,
				1.6,
				1,
				1.633,
				1,
				0,
				3.2,
				1
			]
		},
		{
			"Target": "Parameter",
			"Id": "ParamBrowLY",
			"Segments": [
				0,
				-1,
				1,
				0.056,
				-1,
				0.111,
				-1,
				0.167,
				-1,
				1,
				0.211,
				-1,
				0.256,
				1,
				0.3,
				1,
				1,
				0.333,
				1,
				0.367,
				-1,
				0.4,
				-1,
				0,
				3.2,
				-1
			]
		},
		{
			"Target": "Parameter",
			"Id": "ParamBrowRY",
			"Segments": [
				0,
				-1,
				1,
				0.056,
				-1,
				0.111,
				-1,
				0.167,
				-1,
				1,
				0.211,
				-1,
				0.256,
				1,
				0.3,
				1,
				1,
				0.333,
				1,
				0.367,
				-1,
				0.4,
				-1,
				0,
				3.2,
				-1
			]
		},
		{
			"Target": "Parameter",
			"Id": "ParamMouthForm",
			"Segments": [
				0,
				1,
				1,
				0.056,
				1,
				0.111,
				1,
				0.167,
				1,
				1,
				0.211,
				1,
				0.256,
				0.84,
				0.3,
				0.3,
				1,
				0.322,
				0.03,
				0.344,
				-0.3,
				0.367,
				-0.3,
				1,
				0.689,
				-0.3,
				1.011,
				-0.3,
				1.333,
				-0.3,
				1,
				1.378,
				-0.3,
				1.422,
				-1,
				1.467,
				-1,
				1,
				1.522,
				-1,
				1.578,
				-0.3,
				1.633,
				-0.3,
				1,
				1.689,
				-0.3,
				1.744,
				-1,
				1.8,
				-1,
				1,
				1.867,
				-1,
				1.933,
				-0.3,
				2,
				-0.3,
				1,
				2.056,
				-0.3,
				2.111,
				-1,
				2.167,
				-1,
				1,
				2.2,
				-1,
				2.233,
				-0.3,
				2.267,
				-0.3,
				1,
				2.478,
				-0.3,
				2.689,
				-0.3,
				2.9,
				-0.3,
				1,
				2.911,
				-0.3,
				2.922,
				1,
				2.933,
				1,
				0,
				3.2,
				1
			]
		},
		{
			"Target": "Parameter",
			"Id": "ParamBodyAngleY",
			"Segments": [
				0,
				0,
				1,
				0.056,
				0,
				0.111,
				0,
				0.167,
				0,
				1,
				0.244,
				0,
				0.322,
				-10,
				0.4,
				-10,
				1,
				0.456,
				-10,
				0.511,
				8,
				0.567,
				8,
				1,
				0.667,
				8,
				0.767,
				0,
				0.867,
				0,
				1,
				1.378,
				0,
				1.889,
				0,
				2.4,
				0,
				0,
				3.2,
				0
			]
		},
		{
			"Target": "Parameter",
			"Id": "ParamBreath",
			"Segments": [
				0,
				0,
				1,
				0.444,
				0,
				0.889,
				0,
				1.333,
				0,
				1,
				1.611,
				0,
				1.889,
				1,
				2.167,
				1,
				1,
				2.511,
				1,
				2.856,
				0,
				3.2,
				0
			]
		},
		{
			"Target": "Parameter",
			"Id": "Param",
			"Segments": [
				0,
				0,
				1,
				0.078,
				0,
				0.156,
				2,
				0.233,
				2,
				1,
				0.289,
				2,
				0.344,
				-1,
				0.4,
				-1,
				1,
				0.444,
				-1,
				0.489,
				-0.879,
				0.533,
				0,
				1,
				0.578,
				0.879,
				0.622,
				2,
				0.667,
				2,
				1,
				0.711,
				2,
				0.756,
				-3,
				0.8,
				-3,
				1,
				0.844,
				-3,
				0.889,
				0,
				0.933,
				0,
				1,
				1.067,
				0,
				1.2,
				0,
				1.333,
				0,
				1,
				1.556,
				0,
				1.778,
				-4,
				2,
				-4,
				1,
				2.078,
				-4,
				2.156,
				6,
				2.233,
				6,
				1,
				2.467,
				6,
				2.7,
				-5,
				2.933,
				-5,
				1,
				3.022,
				-5,
				3.111,
				0,
				3.2,
				0
			]
		},
		{
			"Target": "Parameter",
			"Id": "Param2",
			"Segments": [
				0,
				-1,
				1,
				0.078,
				-1,
				0.156,
				-30,
				0.233,
				-30,
				1,
				0.289,
				-30,
				0.344,
				-5,
				0.4,
				-5,
				1,
				0.444,
				-5,
				0.489,
				-30,
				0.533,
				-30,
				1,
				0.578,
				-30,
				0.622,
				30,
				0.667,
				30,
				1,
				0.711,
				30,
				0.756,
				-29,
				0.8,
				-29,
				1,
				0.844,
				-29,
				0.889,
				-0.288,
				0.933,
				0,
				1,
				1.067,
				0.863,
				1.2,
				1,
				1.333,
				1,
				1,
				1.556,
				1,
				1.778,
				-5,
				2,
				-5,
				1,
				2.078,
				-5,
				2.156,
				-4,
				2.233,
				-4,
				1,
				2.467,
				-4,
				2.7,
				-5,
				2.933,
				-5,
				1,
				3.022,
				-5,
				3.111,
				-1,
				3.2,
				-1
			]
		},
		{
			"Target": "Parameter",
			"Id": "ParamHairFront",
			"Segments": [
				0,
				0,
				1,
				0.133,
				0,
				0.267,
				-0.4,
				0.4,
				-0.4,
				1,
				0.456,
				-0.4,
				0.511,
				0.7,
				0.567,
				0.7,
				1,
				0.622,
				0.7,
				0.678,
				-0.5,
				0.733,
				-0.5,
				1,
				0.889,
				-0.5,
				1.044,
				0,
				1.2,
				0,
				1,
				1.244,
				0,
				1.289,
				0,
				1.333,
				0,
				1,
				1.611,
				0,
				1.889,
				0.2,
				2.167,
				0.2,
				1,
				2.511,
				0.2,
				2.856,
				0,
				3.2,
				0
			]
		},
		{
			"Target": "Parameter",
			"Id": "ParamHairBack",
			"Segments": [
				0,
				0,
				1,
				0.133,
				0,
				0.267,
				-0.4,
				0.4,
				-0.4,
				1,
				0.456,
				-0.4,
				0.511,
				0.7,
				0.567,
				0.7,
				1,
				0.622,
				0.7,
				0.678,
				-0.5,
				0.733,
				-0.5,
				1,
				0.889,
				-0.5,
				1.044,
				0,
				1.2,
				0,
				1,
				1.244,
				0,
				1.289,
				0,
				1.333,
				0,
				1,
				1.611,
				0,
				1.889,
				0.1,
				2.167,
				0.1,
				1,
				2.511,
				0.1,
				2.856,
				0,
				3.2,
				0
			]
		}
	]
}