{
	"Version": 3,
	"Parameters": [
		{
			"Id": "ParamBreath",
			"GroupId": "",
			"Name": "Breathing"
		},
		{
			"Id": "ParamHairSide",
			"GroupId": "",
			"Name": "Hair Move Side"
		},
		{
			"Id": "ParamBodyAngleZ",
			"GroupId": "",
			"Name": "Body Z"
		},
		{
			"Id": "Param",
			"GroupId": "",
			"Name": "Liquid"
		}
	],
	"ParameterGroups": [],
	"Parts": []
}