{
	"Version": 3,
	"Parameters": [
		{
			"Id": "ParamBodyAngleX",
			"GroupId": "",
			"Name": "Body X"
		},
		{
			"Id": "ParamBodyAngleY",
			"GroupId": "",
			"Name": "Body Y"
		}
	],
	"ParameterGroups": [],
	"Parts": []
}